{
  "project_info": {
    "project_number": "263396801450",
    "firebase_url": "https://deliveryapp-9cc63.firebaseio.com",
    "project_id": "deliveryapp-9cc63",
    "storage_bucket": "deliveryapp-9cc63.appspot.com"
  },
  "client": [
    {
      "client_info": {
        "mobilesdk_app_id": "1:263396801450:android:794a741983937a40",
        "android_client_info": {
          "package_name": "com.order.delivery"
        }
      },
      "oauth_client": [
        {
          "client_id": "263396801450-0aetgoti7jrvcp3c2ca86616bj9bemeh.apps.googleusercontent.com",
          "client_type": 3
        }
      ],
      "api_key": [
        {
          "current_key": "AIzaSyDYhBtfK_TmMn1PzKgMV6BK0wPgrYZ67cQ"
        }
      ],
      "services": {
        "appinvite_service": {
          "other_platform_oauth_client": [
            {
              "client_id": "263396801450-0aetgoti7jrvcp3c2ca86616bj9bemeh.apps.googleusercontent.com",
              "client_type": 3
            }
          ]
        }
      }
    },
    {
      "client_info": {
        "mobilesdk_app_id": "1:263396801450:android:57cbb9f140b4eb81",
        "android_client_info": {
          "package_name": "com.order.delivery.dev"
        }
      },
      "oauth_client": [
        {
          "client_id": "263396801450-0aetgoti7jrvcp3c2ca86616bj9bemeh.apps.googleusercontent.com",
          "client_type": 3
        }
      ],
      "api_key": [
        {
          "current_key": "AIzaSyDYhBtfK_TmMn1PzKgMV6BK0wPgrYZ67cQ"
        }
      ],
      "services": {
        "appinvite_service": {
          "other_platform_oauth_client": [
            {
              "client_id": "263396801450-0aetgoti7jrvcp3c2ca86616bj9bemeh.apps.googleusercontent.com",
              "client_type": 3
            }
          ]
        }
      }
    }
  ],
  "configuration_version": "1"
}